%YAML 1.1
%TAG !u! tag:unity3d.com,2011:
--- !u!21 &2100000
Material:
  serializedVersion: 6
  m_ObjectHideFlags: 0
  m_PrefabParentObject: {fileID: 0}
  m_PrefabInternal: {fileID: 0}
  m_Name: Glow02
  m_Shader: {fileID: 4800000, guid: 26d8a997046785c469d48c0e4a49b5b5, type: 3}
  m_ShaderKeywords: 
  m_LightmapFlags: 5
  m_CustomRenderQueue: -1
  stringTagMap: {}
  m_SavedProperties:
    serializedVersion: 2
    m_TexEnvs:
    - first:
        name: _MainTex
      second:
        m_Texture: {fileID: 2800000, guid: 69cbd41dc147c034f8db7ead95a58b89, type: 3}
        m_Scale: {x: 1, y: 1}
        m_Offset: {x: 0, y: 0}
    m_Floats:
    - first:
        name: _Cutoff
      second: 0.5
    - first:
        name: _InvFade
      second: 1
    - first:
        name: _QD
      second: 2.5
    m_Colors:
    - first:
        name: _TintColor
      second: {r: 0.5019608, g: 0.5019608, b: 0.5019608, a: 0.5}
